%YAML 1.1
%TAG !u! tag:unity3d.com,2011:
--- !u!1001 &30007397161180841
PrefabInstance:
  m_ObjectHideFlags: 0
  serializedVersion: 2
  m_Modification:
    m_TransformParent: {fileID: 0}
    m_Modifications:
    - target: {fileID: -8825697284935570038, guid: af2000679ef80784eb0f1921c6d836c7, type: 3}
      propertyPath: Value
      value: 50
      objectReference: {fileID: 0}
    - target: {fileID: -8825697284935570038, guid: af2000679ef80784eb0f1921c6d836c7, type: 3}
      propertyPath: Velocity.x
      value: -1
      objectReference: {fileID: 0}
    - target: {fileID: -8825697284935570038, guid: af2000679ef80784eb0f1921c6d836c7, type: 3}
      propertyPath: velocity.x
      value: -1
      objectReference: {fileID: 0}
    - target: {fileID: -8825697284935570038, guid: af2000679ef80784eb0f1921c6d836c7, type: 3}
      propertyPath: direction.x
      value: -1
      objectReference: {fileID: 0}
    - target: {fileID: -6533204158688279991, guid: af2000679ef80784eb0f1921c6d836c7, type: 3}
      propertyPath: Value.x
      value: -1
      objectReference: {fileID: 0}
    - target: {fileID: -6533204158688279991, guid: af2000679ef80784eb0f1921c6d836c7, type: 3}
      propertyPath: MaxForce
      value: 5
      objectReference: {fileID: 0}
    - target: {fileID: -6533204158688279991, guid: af2000679ef80784eb0f1921c6d836c7, type: 3}
      propertyPath: MaxSpeed
      value: 2
      objectReference: {fileID: 0}
    - target: {fileID: -6533204158688279991, guid: af2000679ef80784eb0f1921c6d836c7, type: 3}
      propertyPath: MaxVelocity
      value: 10
      objectReference: {fileID: 0}
    - target: {fileID: 2455356400864586225, guid: af2000679ef80784eb0f1921c6d836c7, type: 3}
      propertyPath: Value.x
      value: -1
      objectReference: {fileID: 0}
    - target: {fileID: 3440585645505960811, guid: af2000679ef80784eb0f1921c6d836c7, type: 3}
      propertyPath: Cooldown
      value: 3
      objectReference: {fileID: 0}
    - target: {fileID: 3440585645505960811, guid: af2000679ef80784eb0f1921c6d836c7, type: 3}
      propertyPath: CurrentCooldown
      value: 4
      objectReference: {fileID: 0}
    - target: {fileID: 3440585645505960811, guid: af2000679ef80784eb0f1921c6d836c7, type: 3}
      propertyPath: ProjectileSpeed
      value: 1000
      objectReference: {fileID: 0}
    - target: {fileID: 3457683519648157572, guid: af2000679ef80784eb0f1921c6d836c7, type: 3}
      propertyPath: m_Name
      value: RedShip
      objectReference: {fileID: 0}
    - target: {fileID: 4732541613232150593, guid: af2000679ef80784eb0f1921c6d836c7, type: 3}
      propertyPath: m_Mesh
      value: 
      objectReference: {fileID: -4302940405818850934, guid: 3e472fc3cdfaac944861c390e8b5c1fd, type: 3}
    - target: {fileID: 5348930485972902401, guid: af2000679ef80784eb0f1921c6d836c7, type: 3}
      propertyPath: m_RootOrder
      value: 0
      objectReference: {fileID: 0}
    - target: {fileID: 5348930485972902401, guid: af2000679ef80784eb0f1921c6d836c7, type: 3}
      propertyPath: m_LocalPosition.x
      value: 0
      objectReference: {fileID: 0}
    - target: {fileID: 5348930485972902401, guid: af2000679ef80784eb0f1921c6d836c7, type: 3}
      propertyPath: m_LocalPosition.y
      value: 0
      objectReference: {fileID: 0}
    - target: {fileID: 5348930485972902401, guid: af2000679ef80784eb0f1921c6d836c7, type: 3}
      propertyPath: m_LocalPosition.z
      value: 0
      objectReference: {fileID: 0}
    - target: {fileID: 5348930485972902401, guid: af2000679ef80784eb0f1921c6d836c7, type: 3}
      propertyPath: m_LocalRotation.w
      value: 1
      objectReference: {fileID: 0}
    - target: {fileID: 5348930485972902401, guid: af2000679ef80784eb0f1921c6d836c7, type: 3}
      propertyPath: m_LocalRotation.x
      value: 0
      objectReference: {fileID: 0}
    - target: {fileID: 5348930485972902401, guid: af2000679ef80784eb0f1921c6d836c7, type: 3}
      propertyPath: m_LocalRotation.y
      value: 0
      objectReference: {fileID: 0}
    - target: {fileID: 5348930485972902401, guid: af2000679ef80784eb0f1921c6d836c7, type: 3}
      propertyPath: m_LocalRotation.z
      value: 0
      objectReference: {fileID: 0}
    - target: {fileID: 5348930485972902401, guid: af2000679ef80784eb0f1921c6d836c7, type: 3}
      propertyPath: m_LocalEulerAnglesHint.x
      value: 0
      objectReference: {fileID: 0}
    - target: {fileID: 5348930485972902401, guid: af2000679ef80784eb0f1921c6d836c7, type: 3}
      propertyPath: m_LocalEulerAnglesHint.y
      value: 0
      objectReference: {fileID: 0}
    - target: {fileID: 5348930485972902401, guid: af2000679ef80784eb0f1921c6d836c7, type: 3}
      propertyPath: m_LocalEulerAnglesHint.z
      value: 0
      objectReference: {fileID: 0}
    - target: {fileID: 5964155112222839471, guid: af2000679ef80784eb0f1921c6d836c7, type: 3}
      propertyPath: m_Materials.Array.data[0]
      value: 
      objectReference: {fileID: 2100000, guid: b1f217bbc692f594fb3e325c07a33f59, type: 2}
    m_RemovedComponents: []
  m_SourcePrefab: {fileID: 100100000, guid: af2000679ef80784eb0f1921c6d836c7, type: 3}
